…
Largest deer is alces.


7. As measured by the data, which snake species has the smallest homerange? Show all of your work, please. Look this species up online and tell me about it!  

```r
filter(homerange, taxon == "snakes") %>% 
arrange(mean.hra.m2)
```

```
## # A tibble: 41 x 24
##    taxon common.name class order family genus species primarymethod N    
##    <fct> <chr>       <chr> <fct> <chr>  <chr> <chr>   <chr>         <chr>
##  1 snak… namaqua dw… rept… squa… viper… bitis schnei… telemetry     11   
##  2 snak… eastern wo… rept… squa… colub… carp… viridis radiotag      10   
##  3 snak… butlers ga… rept… squa… colub… tham… butleri mark-recaptu… 1    
##  4 snak… western wo… rept… squa… colub… carp… vermis  radiotag      1    
##  5 snak… snubnosed … rept… squa… viper… vipe… latast… telemetry     7    
##  6 snak… chinese pi… rept… squa… viper… gloy… shedao… telemetry     16   
##  7 snak… ringneck s… rept… squa… colub… diad… puncta… mark-recaptu… <NA> 
##  8 snak… cottonmouth rept… squa… viper… agki… pisciv… telemetry     15   
##  9 snak… redbacked … rept… squa… colub… ooca… rufodo… telemetry     21   
## 10 snak… gopher sna… rept… squa… colub… pitu… cateni… telemetry     4    
## # … with 31 more rows, and 15 more variables: mean.mass.g <dbl>,
## #   log10.mass <dbl>, alternative.mass.reference <chr>, mean.hra.m2 <dbl>,
## #   log10.hra <dbl>, hra.reference <chr>, realm <chr>, thermoregulation <chr>,
## #   locomotion <chr>, trophic.guild <chr>, dimension <chr>, preymass <dbl>,
## #   log10.preymass <dbl>, PPMR <dbl>, prey.size.reference <chr>
```
…
