Project: Suicide in Global Scale
…
Group by Year: Suicide Number and Suicide Rate

## # A tibble: 32 x 5
##    year  suicide_number population suicide_per_100kpop suicide_rate
##    <fct>          <dbl>      <dbl>               <dbl>        <dbl>
##  1 1985          116063 1008600086               6812.     0.000115
##  2 1986          120670 1029909613               6580.     0.000117
##  3 1987          126842 1095029726               7545.     0.000116
##  4 1988          121026 1054094424               7473.     0.000115
##  5 1989          160244 1225514347               8037.     0.000131
##  6 1990          193361 1466620100               9879.     0.000132
##  7 1991          198020 1489988384              10321.     0.000133
##  8 1992          211473 1569539447              10529.     0.000135
##  9 1993          221565 1530416654              10790.     0.000145
## 10 1994          232063 1548749372              11484.     0.000150
## #  with 22 more rows
…
