…
12. Which country had the largest overall catch in the year 2000?

```r
fisheries_tidy2 %>% 
  filter(year == "2000") %>%
  group_by(country) %>% 
  summarise(overall_catch = sum(catch, na.rm = TRUE)) %>% 
  arrange(desc(overall_catch))
```

```
## # A tibble: 173 x 2
##    country                  overall_catch
##    <fct>                            <dbl>
##  1 Peru                          10625010
##  2 Japan                          4921013
##  3 United States of America       4692229
##  4 Chile                          4297928
##  5 Indonesia                      3761769
##  6 Russian Federation             3678828
##  7 Thailand                       2795719
##  8 India                          2760632
##  9 Norway                         2698506
## 10 Iceland                        1982369
## # … with 163 more rows
```
Peru has the largest overall catch in 2000.


13. Which country caught the most sardines (_Sardina_) between the years 1990-2000?

```r
fisheries_tidy2 %>% 
  filter(between(year, 1990, 2000), grepl('Sardina', ASFIS_sciname)) %>% 
  group_by(country) %>% 
  summarise(max_sarines = max(catch)) %>% 
  arrange(desc(max_sarines))
```

```
## # A tibble: 36 x 2
##    country            max_sarines
##    <fct>                    <dbl>
##  1 Morocco                 556152
##  2 Russian Federation      356203
##  3 Ukraine                 185261
##  4 Spain                   132912
##  5 Portugal                 94468
##  6 Algeria                  58989
##  7 Denmark                  53394
##  8 Lithuania                47569
##  9 Latvia                   45442
## 10 Italy                    42169
## # … with 26 more rows
```
…
15. Given the top five countries from question 12 above, which species was the highest catch total? The lowest?

```r
fisheries_tidy2 %>% 
  filter(country %in% c("Peru", "Japan", "United States of America", "Chile",	"Indonesia")) %>% 
  group_by(ASFIS_sciname) %>% 
  summarise(highest_catch = sum(catch, na.rm = TRUE)) %>% 
  arrange(desc(highest_catch))
```

```
## # A tibble: 610 x 2
##    ASFIS_sciname           highest_catch
##    <fct>                           <dbl>
##  1 Engraulis ringens           324345771
##  2 Theragra chalcogramma        93211535
##  3 Sardinops sagax              70819587
##  4 Trachurus murphyi            69379782
##  5 Sardinops melanostictus      62013941
##  6 Osteichthyes                 51000628
##  7 Scomber japonicus            49791275
##  8 Brevoortia patronus          33511931
##  9 Katsuwonus pelamis           28740322
## 10 Brevoortia tyrannus          20632049
## # … with 600 more rows
```

Engraulis ringens have the highest catch total.


```r
fisheries_tidy2 %>% 
  filter(country %in% c("Peru", "Japan", "United States of America", "Chile",	"Indonesia")) %>% 
  group_by(ASFIS_sciname) %>% 
  summarise(highest_catch = sum(catch)) %>% 
  arrange(highest_catch)
```

```
## # A tibble: 610 x 2
##    ASFIS_sciname              highest_catch
##    <fct>                              <dbl>
##  1 Merluccius polli                       1
##  2 Muraenolepis spp                       1
##  3 Thyrsitops lepidopoides                1
##  4 Carcharhinus falciformis               2
##  5 Chionodraco rastrospinosus             2
##  6 Epinephelus guttatus                   2
##  7 Notothenia neglecta                    2
##  8 Salmo salar                            2
##  9 Hydrolagus colliei                     3
## 10 Peprilus spp                           3
## # … with 600 more rows
```
…
17. Use the data to do at least one exploratory analysis of your choice. What can you learn?

```r
fisheries_tidy2 %>% 
  group_by(year) %>% 
  summarise(yr_catch = sum(catch, na.rm = TRUE)) %>% 
  arrange(desc(yr_catch))
```

```
## # A tibble: 63 x 2
##     year yr_catch
##    <dbl>    <dbl>
##  1  1996 85704181
##  2  1995 83937823
##  3  1994 83577812
##  4  2011 80330815
##  5  1989 79990457
##  6  2007 79670914
##  7  1988 79146785
##  8  2008 78411013
##  9  2009 77932780
## 10  1993 77749960
## # … with 53 more rows
```
…
