…
```
## [1] FALSE
```



```r
gapminder
```

```
## # A tibble: 1,704 x 6
##    country     continent  year lifeExp      pop gdpPercap
##    <fct>       <fct>     <int>   <dbl>    <int>     <dbl>
##  1 Afghanistan Asia       1952    28.8  8425333      779.
##  2 Afghanistan Asia       1957    30.3  9240934      821.
##  3 Afghanistan Asia       1962    32.0 10267083      853.
##  4 Afghanistan Asia       1967    34.0 11537966      836.
##  5 Afghanistan Asia       1972    36.1 13079460      740.
##  6 Afghanistan Asia       1977    38.4 14880372      786.
##  7 Afghanistan Asia       1982    39.9 12881816      978.
##  8 Afghanistan Asia       1987    40.8 13867957      852.
##  9 Afghanistan Asia       1992    41.7 16317921      649.
## 10 Afghanistan Asia       1997    41.8 22227415      635.
## # … with 1,694 more rows
```
…
**5. How has life expectancy changed between 1952-2007 for each continent? Try using `geom_line()` for this, including all continents on the same  plot.**


```r
gapminder %>% 
  group_by(continent, year) %>% 
  summarize(lifeExp_per_year = mean(lifeExp))
```

```
## # A tibble: 60 x 3
## # Groups:   continent [5]
##    continent  year lifeExp_per_year
##    <fct>     <int>            <dbl>
##  1 Africa     1952             39.1
##  2 Africa     1957             41.3
##  3 Africa     1962             43.3
##  4 Africa     1967             45.3
##  5 Africa     1972             47.5
##  6 Africa     1977             49.6
##  7 Africa     1982             51.6
##  8 Africa     1987             53.3
##  9 Africa     1992             53.6
## 10 Africa     1997             53.6
## # … with 50 more rows
```
…
**8. Which countries have had the largest population growth since 1952?**


```r
gapminder %>% 
  group_by(country) %>% 
  summarize(pop_growth = max(pop)-min(pop)) %>% 
  arrange(desc(pop_growth))
```

```
## # A tibble: 142 x 2
##    country       pop_growth
##    <fct>              <int>
##  1 China          762419569
##  2 India          738396331
##  3 United States  143586947
##  4 Indonesia      141495000
##  5 Brazil         133408087
##  6 Pakistan       127924057
##  7 Bangladesh     103561480
##  8 Nigeria        101912068
##  9 Mexico          78556574
## 10 Philippines     68638596
## # … with 132 more rows
```
…
