…
## Three versions of the `gampminder` data  
We will use three versions of the `gapminder` data to perform analyses and (eventually) make plots. For now, make the following long and wide versions of `gapminder`.

## `gapminder`
Notice that `gapminder` has one row for each country and year, and one column for each measurement (lifeExp, pop, gdpPercap).

```r
gapminder <- gapminder
gapminder
```

```
## # A tibble: 1,704 x 6
##    country     continent  year lifeExp      pop gdpPercap
##    <fct>       <fct>     <int>   <dbl>    <int>     <dbl>
##  1 Afghanistan Asia       1952    28.8  8425333      779.
##  2 Afghanistan Asia       1957    30.3  9240934      821.
##  3 Afghanistan Asia       1962    32.0 10267083      853.
##  4 Afghanistan Asia       1967    34.0 11537966      836.
##  5 Afghanistan Asia       1972    36.1 13079460      740.
##  6 Afghanistan Asia       1977    38.4 14880372      786.
##  7 Afghanistan Asia       1982    39.9 12881816      978.
##  8 Afghanistan Asia       1987    40.8 13867957      852.
##  9 Afghanistan Asia       1992    41.7 16317921      649.
## 10 Afghanistan Asia       1997    41.8 22227415      635.
## # … with 1,694 more rows
```
## Long `gapminder`
**3. Make a new data frame `gapminder_long` that combines the three measured values (lifeExp, pop, gdpPercap) into a single column associated with a country and year.**


```r
gapminder_long <-
  gapminder %>% 
  pivot_longer(lifeExp:gdpPercap,
               names_to = "category",
               values_to = "measure")
gapminder_long
```

```
## # A tibble: 5,112 x 5
##    country     continent  year category     measure
##    <fct>       <fct>     <int> <chr>          <dbl>
##  1 Afghanistan Asia       1952 lifeExp         28.8
##  2 Afghanistan Asia       1952 pop        8425333  
##  3 Afghanistan Asia       1952 gdpPercap      779. 
##  4 Afghanistan Asia       1957 lifeExp         30.3
##  5 Afghanistan Asia       1957 pop        9240934  
##  6 Afghanistan Asia       1957 gdpPercap      821. 
##  7 Afghanistan Asia       1962 lifeExp         32.0
##  8 Afghanistan Asia       1962 pop       10267083  
##  9 Afghanistan Asia       1962 gdpPercap      853. 
## 10 Afghanistan Asia       1967 lifeExp         34.0
## # … with 5,102 more rows
```


**4. For practice, use `pivot_wider()` to put the data back into the original `gapminder` format.**


```r
gapminder_long %>%
  pivot_wider(names_from = "category",
              values_from = "measure")
```

```
## # A tibble: 1,704 x 6
##    country     continent  year lifeExp      pop gdpPercap
##    <fct>       <fct>     <int>   <dbl>    <dbl>     <dbl>
##  1 Afghanistan Asia       1952    28.8  8425333      779.
##  2 Afghanistan Asia       1957    30.3  9240934      821.
##  3 Afghanistan Asia       1962    32.0 10267083      853.
##  4 Afghanistan Asia       1967    34.0 11537966      836.
##  5 Afghanistan Asia       1972    36.1 13079460      740.
##  6 Afghanistan Asia       1977    38.4 14880372      786.
##  7 Afghanistan Asia       1982    39.9 12881816      978.
##  8 Afghanistan Asia       1987    40.8 13867957      852.
##  9 Afghanistan Asia       1992    41.7 16317921      649.
## 10 Afghanistan Asia       1997    41.8 22227415      635.
## # … with 1,694 more rows
```

## Wide `gapminder`
**5. Make a new data frame `gapminder_wide` that has all observations for each country in a single row. The column names should be named as "observation_year". Arrange them sequentially by year.**


```r
gapminder_wide <- 
  gapminder %>% 
  pivot_wider(names_from = "year",
              values_from = lifeExp:gdpPercap)
gapminder_wide
```

```
## # A tibble: 142 x 38
##    country continent lifeExp_1952 lifeExp_1957 lifeExp_1962 lifeExp_1967
##    <fct>   <fct>            <dbl>        <dbl>        <dbl>        <dbl>
##  1 Afghan… Asia              28.8         30.3         32.0         34.0
##  2 Albania Europe            55.2         59.3         64.8         66.2
##  3 Algeria Africa            43.1         45.7         48.3         51.4
##  4 Angola  Africa            30.0         32.0         34           36.0
##  5 Argent… Americas          62.5         64.4         65.1         65.6
##  6 Austra… Oceania           69.1         70.3         70.9         71.1
##  7 Austria Europe            66.8         67.5         69.5         70.1
##  8 Bahrain Asia              50.9         53.8         56.9         59.9
##  9 Bangla… Asia              37.5         39.3         41.2         43.5
## 10 Belgium Europe            68           69.2         70.2         70.9
## # … with 132 more rows, and 32 more variables: lifeExp_1972 <dbl>,
## #   lifeExp_1977 <dbl>, lifeExp_1982 <dbl>, lifeExp_1987 <dbl>,
## #   lifeExp_1992 <dbl>, lifeExp_1997 <dbl>, lifeExp_2002 <dbl>,
## #   lifeExp_2007 <dbl>, pop_1952 <int>, pop_1957 <int>, pop_1962 <int>,
## #   pop_1967 <int>, pop_1972 <int>, pop_1977 <int>, pop_1982 <int>,
## #   pop_1987 <int>, pop_1992 <int>, pop_1997 <int>, pop_2002 <int>,
## #   pop_2007 <int>, gdpPercap_1952 <dbl>, gdpPercap_1957 <dbl>,
## #   gdpPercap_1962 <dbl>, gdpPercap_1967 <dbl>, gdpPercap_1972 <dbl>,
## #   gdpPercap_1977 <dbl>, gdpPercap_1982 <dbl>, gdpPercap_1987 <dbl>,
…
**6. For practice, use `pivot_longer()` to put the data back into the original `gapminder` format. Hint: you can't do this in one step!**


```r
gapminder_wide %>%
  pivot_longer(lifeExp_1952:gdpPercap_2007,
               names_to = "category_year",
               values_to = "observation") %>% 
  separate(category_year, into= c("category", "year"), sep = "_") %>% 
  pivot_wider(names_from = "category",
              values_from = "observation")
```

```
## # A tibble: 1,704 x 6
##    country     continent year  lifeExp      pop gdpPercap
##    <fct>       <fct>     <chr>   <dbl>    <dbl>     <dbl>
##  1 Afghanistan Asia      1952     28.8  8425333      779.
##  2 Afghanistan Asia      1957     30.3  9240934      821.
##  3 Afghanistan Asia      1962     32.0 10267083      853.
##  4 Afghanistan Asia      1967     34.0 11537966      836.
##  5 Afghanistan Asia      1972     36.1 13079460      740.
##  6 Afghanistan Asia      1977     38.4 14880372      786.
##  7 Afghanistan Asia      1982     39.9 12881816      978.
##  8 Afghanistan Asia      1987     40.8 13867957      852.
##  9 Afghanistan Asia      1992     41.7 16317921      649.
## 10 Afghanistan Asia      1997     41.8 22227415      635.
## # … with 1,694 more rows
```
…
**10. For the years included in the data, how has life expectancy changed in each country between 1952-2007? How does this look in the USA only?**


```r
gapminder %>% 
  group_by(country) %>%
  select(country, year, lifeExp) %>% 
  pivot_wider(names_from = "year",
              values_from = "lifeExp")
```

```
## # A tibble: 142 x 13
## # Groups:   country [142]
##    country `1952` `1957` `1962` `1967` `1972` `1977` `1982` `1987` `1992` `1997`
##    <fct>    <dbl>  <dbl>  <dbl>  <dbl>  <dbl>  <dbl>  <dbl>  <dbl>  <dbl>  <dbl>
##  1 Afghan…   28.8   30.3   32.0   34.0   36.1   38.4   39.9   40.8   41.7   41.8
##  2 Albania   55.2   59.3   64.8   66.2   67.7   68.9   70.4   72     71.6   73.0
##  3 Algeria   43.1   45.7   48.3   51.4   54.5   58.0   61.4   65.8   67.7   69.2
##  4 Angola    30.0   32.0   34     36.0   37.9   39.5   39.9   39.9   40.6   41.0
##  5 Argent…   62.5   64.4   65.1   65.6   67.1   68.5   69.9   70.8   71.9   73.3
##  6 Austra…   69.1   70.3   70.9   71.1   71.9   73.5   74.7   76.3   77.6   78.8
##  7 Austria   66.8   67.5   69.5   70.1   70.6   72.2   73.2   74.9   76.0   77.5
##  8 Bahrain   50.9   53.8   56.9   59.9   63.3   65.6   69.1   70.8   72.6   73.9
##  9 Bangla…   37.5   39.3   41.2   43.5   45.3   46.9   50.0   52.8   56.0   59.4
## 10 Belgium   68     69.2   70.2   70.9   71.4   72.8   73.9   75.4   76.5   77.5
## # … with 132 more rows, and 2 more variables: `2002` <dbl>, `2007` <dbl>
```
…
**11. In the year 2007, which countries had a life expectancy between 70 and 75 years?**


```r
gapminder %>% 
  group_by(country) %>%
  select(country, year, lifeExp) %>% 
  filter(year == "2007", (between(lifeExp, 70, 75)))
```

```
## # A tibble: 39 x 3
## # Groups:   country [39]
##    country                 year lifeExp
##    <fct>                  <int>   <dbl>
##  1 Algeria                 2007    72.3
##  2 Bosnia and Herzegovina  2007    74.9
##  3 Brazil                  2007    72.4
##  4 Bulgaria                2007    73.0
##  5 China                   2007    73.0
##  6 Colombia                2007    72.9
##  7 Dominican Republic      2007    72.2
##  8 Ecuador                 2007    75.0
##  9 Egypt                   2007    71.3
## 10 El Salvador             2007    71.9
## # … with 29 more rows
```
…
```r
gapminder_Asia<-
  gapminder %>% 
  filter(continent == "Asia")
gapminder_Asia
```

```
## # A tibble: 396 x 6
##    country     continent  year lifeExp      pop gdpPercap
##    <fct>       <fct>     <int>   <dbl>    <int>     <dbl>
##  1 Afghanistan Asia       1952    28.8  8425333      779.
##  2 Afghanistan Asia       1957    30.3  9240934      821.
##  3 Afghanistan Asia       1962    32.0 10267083      853.
##  4 Afghanistan Asia       1967    34.0 11537966      836.
##  5 Afghanistan Asia       1972    36.1 13079460      740.
##  6 Afghanistan Asia       1977    38.4 14880372      786.
##  7 Afghanistan Asia       1982    39.9 12881816      978.
##  8 Afghanistan Asia       1987    40.8 13867957      852.
##  9 Afghanistan Asia       1992    41.7 16317921      649.
## 10 Afghanistan Asia       1997    41.8 22227415      635.
## # … with 386 more rows
```


```r
gapminder_Asia %>% 
  count(country, sort = T)
```

```
## # A tibble: 33 x 2
##    country              n
##    <fct>            <int>
##  1 Afghanistan         12
##  2 Bahrain             12
##  3 Bangladesh          12
##  4 Cambodia            12
##  5 China               12
##  6 Hong Kong, China    12
##  7 India               12
##  8 Indonesia           12
##  9 Iran                12
## 10 Iraq                12
## # … with 23 more rows
```


**14. Next, remove all of the countries from this list that are part of the Middle East and put them into a new object `gapminder_middleEast`. Add a new column to the data called "region" and make sure "Middle East" is specified for these countries.**


```r
gapminder_middleEast <-
  gapminder_Asia %>% 
  filter(country %in% c("Bahrain", "Iran", "Iraq", "Israel", "Jordan", "Kuwait", "Lebanon", "Oman", "Saudi Arabia", "Syria", "Yemen, Rep."))%>% 
  mutate(region = "Middle East")
gapminder_middleEast
```

```
## # A tibble: 132 x 7
##    country continent  year lifeExp    pop gdpPercap region     
##    <fct>   <fct>     <int>   <dbl>  <int>     <dbl> <chr>      
##  1 Bahrain Asia       1952    50.9 120447     9867. Middle East
##  2 Bahrain Asia       1957    53.8 138655    11636. Middle East
##  3 Bahrain Asia       1962    56.9 171863    12753. Middle East
##  4 Bahrain Asia       1967    59.9 202182    14805. Middle East
##  5 Bahrain Asia       1972    63.3 230800    18269. Middle East
##  6 Bahrain Asia       1977    65.6 297410    19340. Middle East
##  7 Bahrain Asia       1982    69.1 377967    19211. Middle East
##  8 Bahrain Asia       1987    70.8 454612    18524. Middle East
##  9 Bahrain Asia       1992    72.6 529491    19036. Middle East
## 10 Bahrain Asia       1997    73.9 598561    20292. Middle East
## # … with 122 more rows
```
…
